…
  group_by(city_state) %>% 
  nest() %>% 
  mutate(cities = map(data, ~glm(solved ~ victim_age + victim_sex + victim_race, data = .x, family = binomial())),
    cities = map(cities, broom::tidy)) %>% 
   select(-data) %>% 
  unnest() %>% 
  filter(term == "victim_racenon-white") %>% 
  mutate(OR = exp(estimate),
         conf_low = exp(estimate - std.error*1.96),
         conf_high = exp(estimate + std.error*1.96)) %>%
  select(city_state, term, log_OR = estimate, OR, conf_low, conf_high, p.value)
all_cities
```

    ## # A tibble: 47 x 7
    ##    city_state     term            log_OR    OR conf_low conf_high  p.value
    ##    <chr>          <chr>            <dbl> <dbl>    <dbl>     <dbl>    <dbl>
    ##  1 Albuquerque, ~ victim_raceno~ -0.324  0.723   0.438      1.19   2.06e-1
    ##  2 Atlanta, GA    victim_raceno~ -0.284  0.753   0.432      1.31   3.17e-1
    ##  3 Baltimore, MD  victim_raceno~ -0.820  0.441   0.313      0.620  2.68e-6
    ##  4 Baton Rouge, ~ victim_raceno~ -0.404  0.668   0.313      1.43   2.96e-1
    ##  5 Birmingham, AL victim_raceno~  0.0385 1.04    0.615      1.76   8.86e-1
    ##  6 Boston, MA     victim_raceno~ -2.15   0.116   0.0480     0.282  1.96e-6
    ##  7 Buffalo, NY    victim_raceno~ -0.936  0.392   0.214      0.719  2.47e-3
    ##  8 Charlotte, NC  victim_raceno~ -0.584  0.558   0.321      0.969  3.83e-2
    ##  9 Chicago, IL    victim_raceno~ -0.576  0.562   0.431      0.733  2.07e-5
    ## 10 Cincinnati, OH victim_raceno~ -1.14   0.318   0.184      0.551  4.28e-5
    ## # ... with 37 more rows
…
